Project 1: Wrangling, Exploration, Visualization
…
Paragraph or two introducing your datasets and variables, why they are interesting to you, etc.

This project employ two datasets acquired from the website https://vincentarelbundock.github.io/Rdatasets/datasets.html, both of which explores the relationship between gender and their influence on employment aspects such as wages. The dataset, ggs_wages, contains wage data from the General Social Survey that took place from 1974 through 2018. This data was recorded to illustrate wage discrepancies by gender. This dataset contains many variable, such as respondent occupation, age, number of children, occupation prestige, marital status, work status, and education status. With many variables in this dataset, however, this project will primarily focus on gender (male/female), and their respective income.

These datasets and variables are interesting to me because gender inequality remains a prominent problem in our society today. I believe that there should not be a gender wage gap in the work place. Women and men should be earning the same amount of money for equal work. From these data sets, there is a chance for potential discrimination associations in terms of wage gaps. I suspect that there might be a wage gap between men and women in the second data set, demonstrating that men earns more money than women. This is, of course, just my personal hypothesis and is all speculation until proven accurate using data wrangling, exploration, visualization

# read your datasets in here, e.g., with read_csv()
library(tidyverse)

wagegap <- read_csv("gss_wages.csv")

wage1 <- wagegap %>% select(1:6)
wage1

## # A tibble: 61,697 x 6
##       X1  year realrinc   age occ10 occrecode                        
##    <dbl> <dbl>    <dbl> <dbl> <dbl> <chr>                            
##  1     1  1974     4935    21  5620 Office and Administrative Support
##  2     2  1974    43178    41  2040 Professional                     
##  3     3  1974       NA    83    NA <NA>                             
##  4     4  1974       NA    69    NA <NA>                             
##  5     5  1974    18505    58  5820 Office and Administrative Support
##  6     6  1974    22206    30   910 Business/Finance                 
##  7     7  1974    55515    48   230 Business/Finance                 
##  8     8  1974       NA    67  6355 Construction/Extraction          
##  9     9  1974       NA    51  4720 Sales                            
## 10    10  1974     4935    54  3940 Service                          
## #  with 61,687 more rows

wage2 <- wagegap %>% select(1, 7:12)
wage2

## # A tibble: 61,697 x 7
##       X1 prestg10 childs wrkstat     gender educcat               maritalcat   
##    <dbl>    <dbl>  <dbl> <chr>       <chr>  <chr>                 <chr>        
##  1     1       25      0 School      Male   High School           Married      
##  2     2       66      3 Full-Time   Male   Bachelor              Married      
##  3     3       NA      2 Housekeeper Female Less Than High School Widowed      
##  4     4       NA      2 Housekeeper Female Less Than High School Widowed      
##  5     5       37      0 Full-Time   Female High School           Never Married
##  6     6       45      0 School      Male   Bachelor              Married      
##  7     7       59      2 Full-Time   Male   Graduate              Married      
##  8     8       49      1 Retired     Male   Less Than High School Married      
##  9     9       28      2 Housekeeper Female High School           Married      
## 10    10       38      2 Full-Time   Female Less Than High School Married      
## #  with 61,687 more rows
Due to some technical errors with my first data set, I was instructed by Dr.Woodward to split up my second data set and join them later by X1.

Tidying: Reshaping

If your datasets are tidy already, demonstrate that you can reshape data with pivot wider/longer here (e.g., untidy and then retidy). Alternatively, it may be easier to wait until the wrangling section so you can reshape your summary statistics. Note here if you are going to do this.

# your tidying code (if applicable; can also wait until
# wrangling section)

# untidy
untidywagegap <- wagegap %>% pivot_wider(names_from = "gender", 
    values_from = "age")
untidywagegap

## # A tibble: 61,697 x 12
##       X1  year realrinc occ10 occrecode prestg10 childs wrkstat educcat
##    <dbl> <dbl>    <dbl> <dbl> <chr>        <dbl>  <dbl> <chr>   <chr>  
##  1     1  1974     4935  5620 Office a       25      0 School  High S
##  2     2  1974    43178  2040 Professi       66      3 Full-T Bachel
##  3     3  1974       NA    NA <NA>            NA      2 Housek Less T
##  4     4  1974       NA    NA <NA>            NA      2 Housek Less T
##  5     5  1974    18505  5820 Office a       37      0 Full-T High S
##  6     6  1974    22206   910 Business       45      0 School  Bachel
##  7     7  1974    55515   230 Business       59      2 Full-T Gradua
##  8     8  1974       NA  6355 Construc       49      1 Retired Less T
##  9     9  1974       NA  4720 Sales           28      2 Housek High S
## 10    10  1974     4935  3940 Service         38      2 Full-T Less T
## #  with 61,687 more rows, and 3 more variables: maritalcat <chr>, Male <dbl>,
## #   Female <dbl>

# tidy
tidywagegap <- untidywagegap %>% pivot_longer(11:12, names_to = "gender", 
    values_to = "age", values_drop_na = T)
tidywagegap

## # A tibble: 61,478 x 12
##       X1  year realrinc occ10 occrecode prestg10 childs wrkstat educcat
##    <dbl> <dbl>    <dbl> <dbl> <chr>        <dbl>  <dbl> <chr>   <chr>  
##  1     1  1974     4935  5620 Office a       25      0 School  High S
##  2     2  1974    43178  2040 Professi       66      3 Full-T Bachel
##  3     3  1974       NA    NA <NA>            NA      2 Housek Less T
##  4     4  1974       NA    NA <NA>            NA      2 Housek Less T
##  5     5  1974    18505  5820 Office a       37      0 Full-T High S
##  6     6  1974    22206   910 Business       45      0 School  Bachel
##  7     7  1974    55515   230 Business       59      2 Full-T Gradua
##  8     8  1974       NA  6355 Construc       49      1 Retired Less T
##  9     9  1974       NA  4720 Sales           28      2 Housek High S
## 10    10  1974     4935  3940 Service         38      2 Full-T Less T
## #  with 61,468 more rows, and 3 more variables: maritalcat <chr>,
## #   gender <chr>, age <dbl>
wagegap %>% summarize(sum(is.na(age)))

## # A tibble: 1 x 1
##   `sum(is.na(age))`
##               <int>
## 1               219

Joining/Merging

# joining code
fulldata <- full_join(wage1, wage2, by = c(X1 = "X1"))

fulldata

## # A tibble: 61,697 x 12
##       X1  year realrinc   age occ10 occrecode prestg10 childs wrkstat gender
##    <dbl> <dbl>    <dbl> <dbl> <dbl> <chr>        <dbl>  <dbl> <chr>   <chr> 
##  1     1  1974     4935    21  5620 Office a       25      0 School  Male  
##  2     2  1974    43178    41  2040 Professi       66      3 Full-T Male  
##  3     3  1974       NA    83    NA <NA>            NA      2 Housek Female
##  4     4  1974       NA    69    NA <NA>            NA      2 Housek Female
##  5     5  1974    18505    58  5820 Office a       37      0 Full-T Female
##  6     6  1974    22206    30   910 Business       45      0 School  Male  
##  7     7  1974    55515    48   230 Business       59      2 Full-T Male  
##  8     8  1974       NA    67  6355 Construc       49      1 Retired Male  
##  9     9  1974       NA    51  4720 Sales           28      2 Housek Female
## 10    10  1974     4935    54  3940 Service         38      2 Full-T Female
## #  with 61,687 more rows, and 2 more variables: educcat <chr>,
## #   maritalcat <chr>
…
## [1] 0

## The number of people the two datasets have in common
nrow(inner_join(wage1, wage2, by = c(X1 = "X1")))

## [1] 61697

There are 61,697 obs/rows in both wage1 and wage2. However, the data set wage1 contains 6 columns while the data set wage2 contains 7 columns. When joined together, the full data contains 61,697 obs/rows and 13 columns. There is 61,697 unique IDs in each data set (wage1 & wage2). The number of people that are in wage1 but not in wage2 is 0 and vice versa. This is because I split up the same data set into two, therefore the two datasets have all IDs in common. The number of people the two datasets have in common is 61,697. In the joined data set, zero rows were dropped because fulljoin was used. Fulljoin does not drop any rows and it retains all of the original data; therefore, the resulting joined data set has number of rows equal to union of IDs.

Wrangling

# filter
fulldata %>% filter(gender == "Male" & realrinc > 15000)

## # A tibble: 12,844 x 12
##       X1  year realrinc   age occ10 occrecode prestg10 childs wrkstat gender
##    <dbl> <dbl>    <dbl> <dbl> <dbl> <chr>        <dbl>  <dbl> <chr>   <chr> 
##  1     2  1974    43178    41  2040 Professi       66      3 Full-T Male  
##  2     6  1974    22206    30   910 Business       45      0 School  Male  
##  3     7  1974    55515    48   230 Business       59      2 Full-T Male  
##  4    16  1974    18505    23  7810 Producti       28      1 Full-T Male  
##  5    26  1974    30841    59  4710 Sales           48      1 Full-T Male  
##  6    27  1974    30841    53  4760 Sales           31      4 Full-T Male  
##  7    31  1974    96450    51   430 Business       39      2 Full-T Male  
##  8    37  1974    43178    39  7700 Producti       50      4 Full-T Male  
##  9    41  1974    30841    28    10 Business       72      1 Full-T Male  
## 10    42  1974    22206    47  2320 Professi       64      0 Full-T Male  
## #  with 12,834 more rows, and 2 more variables: educcat <chr>,
## #   maritalcat <chr>

fulldata %>% filter(gender == "Female" & realrinc > 15000)

## # A tibble: 7,665 x 12
##       X1  year realrinc   age occ10 occrecode prestg10 childs wrkstat gender
##    <dbl> <dbl>    <dbl> <dbl> <dbl> <chr>        <dbl>  <dbl> <chr>   <chr> 
##  1     5  1974    18505    58  5820 Office a       37      0 Full-T Female
##  2    40  1974    30841    23  2320 Professi       64      0 Full-T Female
##  3    45  1974    16038    50  5700 Office a       47      3 Full-T Female
##  4    55  1974    30841    52  2850 Professi       67      1 Full-T Female
##  5    60  1974    30841    55  4010 Service         38      1 Full-T Female
##  6    70  1974    30841    29  2630 Professi       46      1 Full-T Female
##  7   110  1974    22206    44  3600 Service         48      4 Full-T Female
##  8   119  1974    22206    27  2310 Professi       61      0 Full-T Female
##  9   135  1974    16038    30  5160 Office a       39      0 Full-T Female
## 10   150  1974    22206    43   230 Business       59      2 Full-T Female
## #  with 7,655 more rows, and 2 more variables: educcat <chr>, maritalcat <chr>
…
## # A tibble: 3 x 2
##   `educcat == "Bachelor" | educcat == "Graduate"`     n
##   <lgl>                                           <int>
## 1 FALSE                                           20327
## 2 TRUE                                             6723
## 3 NA                                                 56

# (6723/27106)*100 = 24.8%

# arrange
fulldata %>% arrange(educcat)

## # A tibble: 61,697 x 12
##       X1  year realrinc   age occ10 occrecode prestg10 childs wrkstat gender
##    <dbl> <dbl>    <dbl> <dbl> <dbl> <chr>        <dbl>  <dbl> <chr>   <chr> 
##  1     2  1974    43178    41  2040 Professi       66      3 Full-T Male  
##  2     6  1974    22206    30   910 Business       45      0 School  Male  
##  3    40  1974    30841    23  2320 Professi       64      0 Full-T Female
##  4    41  1974    30841    28    10 Business       72      1 Full-T Male  
##  5    46  1974    30841    32  9620 Transpor       25      2 Full-T Male  
##  6    66  1974       NA    24    NA <NA>            NA      0 School  Male  
##  7    69  1974       NA    29    NA <NA>            NA      2 Housek Female
##  8    70  1974    30841    29  2630 Professi       46      1 Full-T Female
##  9    87  1974    11103    58   205 Business       46      4 Tempor Male  
## 10    90  1974     4935    29  3255 Professi       64      2 Part-T Female
## #  with 61,687 more rows, and 2 more variables: educcat <chr>,
## #   maritalcat <chr>

fulldata %>% arrange(desc(realrinc))

## # A tibble: 61,697 x 12
##       X1  year realrinc   age occ10 occrecode prestg10 childs wrkstat gender
##    <dbl> <dbl>    <dbl> <dbl> <dbl> <chr>        <dbl>  <dbl> <chr>   <chr> 
##  1 47922  2008  480144.    36   840 Business       58      0 Full-T Male  
##  2 47931  2008  480144.    42   800 Business       60      0 Full-T Male  
##  3 47955  2008  480144.    34  4920 Sales           49      2 Part-T Female
##  4 47993  2008  480144.    43  4820 Sales           58      2 Full-T Male  
##  5 47997  2008  480144.    57  2750 Professi       51      2 Full-T Male  
##  6 48023  2008  480144.    62    10 Business       72      2 Full-T Female
##  7 48156  2008  480144.    42  1530 Professi       70      3 Full-T Male  
##  8 48161  2008  480144.    43   110 Business       60      1 Full-T Male  
##  9 48173  2008  480144.    41   710 Business       51      2 Full-T Male  
## 10 48175  2008  480144.    36    10 Business       72      2 Full-T Male  
## #  with 61,687 more rows, and 2 more variables: educcat <chr>,
## #   maritalcat <chr>

# select
fulldata %>% select(gender, educcat)

## # A tibble: 61,697 x 2
##    gender educcat              
##    <chr>  <chr>                
##  1 Male   High School          
##  2 Male   Bachelor             
##  3 Female Less Than High School
##  4 Female Less Than High School
##  5 Female High School          
##  6 Male   Bachelor             
##  7 Male   Graduate             
##  8 Male   Less Than High School
##  9 Female High School          
## 10 Female Less Than High School
## #  with 61,687 more rows

fulldata %>% select(gender, realrinc) %>% na.omit()

## # A tibble: 37,887 x 2
##    gender realrinc
##    <chr>     <dbl>
##  1 Male       4935
##  2 Male      43178
##  3 Female    18505
##  4 Male      22206
##  5 Male      55515
##  6 Female     4935
##  7 Female     4935
##  8 Male      18505
##  9 Male      11103
## 10 Male      30841
## #  with 37,877 more rows

# group by
fulldata %>% group_by(gender)

## # A tibble: 61,697 x 12
## # Groups:   gender [2]
##       X1  year realrinc   age occ10 occrecode prestg10 childs wrkstat gender
##    <dbl> <dbl>    <dbl> <dbl> <dbl> <chr>        <dbl>  <dbl> <chr>   <chr> 
##  1     1  1974     4935    21  5620 Office a       25      0 School  Male  
##  2     2  1974    43178    41  2040 Professi       66      3 Full-T Male  
##  3     3  1974       NA    83    NA <NA>            NA      2 Housek Female
##  4     4  1974       NA    69    NA <NA>            NA      2 Housek Female
##  5     5  1974    18505    58  5820 Office a       37      0 Full-T Female
##  6     6  1974    22206    30   910 Business       45      0 School  Male  
##  7     7  1974    55515    48   230 Business       59      2 Full-T Male  
##  8     8  1974       NA    67  6355 Construc       49      1 Retired Male  
##  9     9  1974       NA    51  4720 Sales           28      2 Housek Female
## 10    10  1974     4935    54  3940 Service         38      2 Full-T Female
## #  with 61,687 more rows, and 2 more variables: educcat <chr>,
## #   maritalcat <chr>

fulldata %>% group_by(educcat)

## # A tibble: 61,697 x 12
## # Groups:   educcat [6]
##       X1  year realrinc   age occ10 occrecode prestg10 childs wrkstat gender
##    <dbl> <dbl>    <dbl> <dbl> <dbl> <chr>        <dbl>  <dbl> <chr>   <chr> 
##  1     1  1974     4935    21  5620 Office a       25      0 School  Male  
##  2     2  1974    43178    41  2040 Professi       66      3 Full-T Male  
##  3     3  1974       NA    83    NA <NA>            NA      2 Housek Female
##  4     4  1974       NA    69    NA <NA>            NA      2 Housek Female
##  5     5  1974    18505    58  5820 Office a       37      0 Full-T Female
##  6     6  1974    22206    30   910 Business       45      0 School  Male  
##  7     7  1974    55515    48   230 Business       59      2 Full-T Male  
##  8     8  1974       NA    67  6355 Construc       49      1 Retired Male  
##  9     9  1974       NA    51  4720 Sales           28      2 Housek Female
## 10    10  1974     4935    54  3940 Service         38      2 Full-T Female
## #  with 61,687 more rows, and 2 more variables: educcat <chr>,
## #   maritalcat <chr>

# mutate
money_prestige <- fulldata %>% select(realrinc, prestg10)

fulldata <- fulldata %>% mutate(money_prestige, salary_per_prestige = realrinc/prestg10)

fulldata %>% select(realrinc, prestg10, salary_per_prestige) %>% 
    na.omit() %>% arrange(desc(prestg10))

## # A tibble: 37,368 x 3
##    realrinc prestg10 salary_per_prestige
##       <dbl>    <dbl>               <dbl>
##  1    96450       80              1206. 
##  2    55515       80               694. 
##  3    22206       80               278. 
##  4    81652       80              1021. 
##  5    81652       80              1021. 
##  6    72229       80               903. 
##  7   201640       80              2520. 
##  8   135131       80              1689. 
##  9      905       80                11.3
## 10   135131       80              1689. 
## #  with 37,358 more rows

fulldata %>% mutate_if(is.numeric, round) %>% arrange(desc(realrinc))

## # A tibble: 61,697 x 13
##       X1  year realrinc   age occ10 occrecode prestg10 childs wrkstat gender
##    <dbl> <dbl>    <dbl> <dbl> <dbl> <chr>        <dbl>  <dbl> <chr>   <chr> 
##  1 47922  2008   480144    36   840 Business       58      0 Full-T Male  
##  2 47931  2008   480144    42   800 Business       60      0 Full-T Male  
##  3 47955  2008   480144    34  4920 Sales           49      2 Part-T Female
##  4 47993  2008   480144    43  4820 Sales           58      2 Full-T Male  
##  5 47997  2008   480144    57  2750 Professi       51      2 Full-T Male  
##  6 48023  2008   480144    62    10 Business       72      2 Full-T Female
##  7 48156  2008   480144    42  1530 Professi       70      3 Full-T Male  
##  8 48161  2008   480144    43   110 Business       60      1 Full-T Male  
##  9 48173  2008   480144    41   710 Business       51      2 Full-T Male  
## 10 48175  2008   480144    36    10 Business       72      2 Full-T Male  
## #  with 61,687 more rows, and 3 more variables: educcat <chr>,
## #   maritalcat <chr>, salary_per_prestige <dbl>
…
str_match_all(string1, "\\d+")

## [[1]]
##      [,1]    
## [1,] "61"    
## [2,] "697"   
## [3,] "16029" 
## [4,] "28504" 
## [5,] "227"   
## [6,] "480144"

## Summarize after grouping by a categorical variable
fulldata %>% group_by(gender) %>% summarize(realrinc) %>% arrange(realrinc)

## # A tibble: 61,697 x 2
## # Groups:   gender [2]
##    gender realrinc
##    <chr>     <dbl>
##  1 Female      227
##  2 Female      227
##  3 Female      227
##  4 Female      227
##  5 Female      227
##  6 Female      227
##  7 Female      227
##  8 Female      227
##  9 Female      227
## 10 Female      227
## #  with 61,687 more rows

fulldata %>% group_by(educcat) %>% summarize(realrinc) %>% arrange(desc(realrinc))

## # A tibble: 61,697 x 2
## # Groups:   educcat [6]
##    educcat  realrinc
##    <chr>       <dbl>
##  1 Bachelor  480144.
##  2 Bachelor  480144.
##  3 Bachelor  480144.
##  4 Bachelor  480144.
##  5 Bachelor  480144.
##  6 Bachelor  480144.
##  7 Bachelor  480144.
##  8 Bachelor  480144.
##  9 Bachelor  480144.
## 10 Graduate  480144.
## #  with 61,687 more rows
…
